0 hMCS in 0.000509 seconds (kernel)
1 hMCS in 0.000707 seconds (kernel)
2 hMCS in 0.000874 seconds (kernel)
4 hMCS in 0.001210 seconds (kernel)
8 hMCS in 0.001862 seconds (kernel)
16 hMCS in 0.003159 seconds (kernel)
32 hMCS in 0.005723 seconds (kernel)
64 hMCS in 0.011576 seconds (kernel)
128 hMCS in 0.025171 seconds (kernel)
256 hMCS in 0.052084 seconds (kernel)
512 hMCS in 0.109339 seconds (kernel)
1024 hMCS in 0.428901 seconds (kernel)
2048 hMCS in 0.658930 seconds (kernel)
4096 hMCS in 1.111468 seconds (kernel)
8192 hMCS in 2.107624 seconds (kernel)
16384 hMCS in 3.485880 seconds (kernel)
32768 hMCS in 7.059494 seconds (kernel)
65536 hMCS in 14.895658 seconds (kernel)
KERNEL=30.654365/348.802087 seconds
particle update(per second)=35027370.824163
