0 hMCS in 0.000015 seconds (kernel)
1 hMCS in 0.000025 seconds (kernel)
2 hMCS in 0.000035 seconds (kernel)
4 hMCS in 0.000053 seconds (kernel)
8 hMCS in 0.000085 seconds (kernel)
16 hMCS in 0.000147 seconds (kernel)
32 hMCS in 0.000325 seconds (kernel)
64 hMCS in 0.000558 seconds (kernel)
128 hMCS in 0.001020 seconds (kernel)
256 hMCS in 0.001927 seconds (kernel)
512 hMCS in 0.003725 seconds (kernel)
1024 hMCS in 0.007264 seconds (kernel)
2048 hMCS in 0.014484 seconds (kernel)
4096 hMCS in 0.028710 seconds (kernel)
8192 hMCS in 0.057092 seconds (kernel)
16384 hMCS in 0.113057 seconds (kernel)
32768 hMCS in 0.224287 seconds (kernel)
65536 hMCS in 0.448041 seconds (kernel)
KERNEL=0.903790/4.304348 seconds
particle update(per second)=148505365.013682
