0 hMCS in 0.000016 seconds (kernel)
1 hMCS in 0.000024 seconds (kernel)
2 hMCS in 0.000031 seconds (kernel)
4 hMCS in 0.000045 seconds (kernel)
8 hMCS in 0.000074 seconds (kernel)
16 hMCS in 0.000125 seconds (kernel)
32 hMCS in 0.000221 seconds (kernel)
64 hMCS in 0.000409 seconds (kernel)
128 hMCS in 0.000781 seconds (kernel)
256 hMCS in 0.001503 seconds (kernel)
512 hMCS in 0.002925 seconds (kernel)
1024 hMCS in 0.005774 seconds (kernel)
2048 hMCS in 0.011470 seconds (kernel)
4096 hMCS in 0.022914 seconds (kernel)
8192 hMCS in 0.045360 seconds (kernel)
16384 hMCS in 0.090200 seconds (kernel)
32768 hMCS in 0.179458 seconds (kernel)
65536 hMCS in 0.363886 seconds (kernel)
KERNEL=0.807751/3.319296 seconds
particle update(per second)=166162286.715420
