0 hMCS in 0.001154 seconds (kernel)
1 hMCS in 0.002389 seconds (kernel)
2 hMCS in 0.003648 seconds (kernel)
4 hMCS in 0.005985 seconds (kernel)
8 hMCS in 0.010367 seconds (kernel)
16 hMCS in 0.018793 seconds (kernel)
32 hMCS in 0.030692 seconds (kernel)
64 hMCS in 0.052723 seconds (kernel)
128 hMCS in 0.102323 seconds (kernel)
256 hMCS in 0.187425 seconds (kernel)
512 hMCS in 0.357298 seconds (kernel)
1024 hMCS in 0.696634 seconds (kernel)
2048 hMCS in 1.381503 seconds (kernel)
4096 hMCS in 3.086543 seconds (kernel)
8192 hMCS in 6.266049 seconds (kernel)
16384 hMCS in 12.283767 seconds (kernel)
32768 hMCS in 24.214071 seconds (kernel)
65536 hMCS in 48.358730 seconds (kernel)
KERNEL=96.740191/2383.415375 seconds
particle update(per second)=88793855.630139
