0 hMCS in 0.000022 seconds (kernel)
1 hMCS in 0.000051 seconds (kernel)
2 hMCS in 0.000077 seconds (kernel)
4 hMCS in 0.000112 seconds (kernel)
8 hMCS in 0.000157 seconds (kernel)
16 hMCS in 0.000229 seconds (kernel)
32 hMCS in 0.000345 seconds (kernel)
64 hMCS in 0.000558 seconds (kernel)
128 hMCS in 0.000963 seconds (kernel)
256 hMCS in 0.001747 seconds (kernel)
512 hMCS in 0.003284 seconds (kernel)
1024 hMCS in 0.006361 seconds (kernel)
2048 hMCS in 0.011447 seconds (kernel)
4096 hMCS in 0.021527 seconds (kernel)
8192 hMCS in 0.041316 seconds (kernel)
16384 hMCS in 0.080835 seconds (kernel)
32768 hMCS in 0.160221 seconds (kernel)
65536 hMCS in 0.336798 seconds (kernel)
KERNEL=0.706389/3.026948 seconds
particle update(per second)=190005475.964995
