0 hMCS in 0.000793 seconds (kernel)
1 hMCS in 0.001569 seconds (kernel)
2 hMCS in 0.002355 seconds (kernel)
4 hMCS in 0.003938 seconds (kernel)
8 hMCS in 0.007110 seconds (kernel)
16 hMCS in 0.013441 seconds (kernel)
32 hMCS in 0.026092 seconds (kernel)
64 hMCS in 0.051452 seconds (kernel)
128 hMCS in 0.102215 seconds (kernel)
256 hMCS in 0.203821 seconds (kernel)
512 hMCS in 0.405766 seconds (kernel)
1024 hMCS in 0.807366 seconds (kernel)
2048 hMCS in 1.612785 seconds (kernel)
4096 hMCS in 3.229406 seconds (kernel)
8192 hMCS in 6.467495 seconds (kernel)
16384 hMCS in 12.950270 seconds (kernel)
32768 hMCS in 25.951126 seconds (kernel)
65536 hMCS in 52.005609 seconds (kernel)
KERNEL=104.179260/174.566775 seconds
particle update(per second)=659627232.803238
