0 hMCS in 0.000015 seconds (kernel)
1 hMCS in 0.000034 seconds (kernel)
2 hMCS in 0.000053 seconds (kernel)
4 hMCS in 0.000106 seconds (kernel)
8 hMCS in 0.000145 seconds (kernel)
16 hMCS in 0.000207 seconds (kernel)
32 hMCS in 0.000311 seconds (kernel)
64 hMCS in 0.000518 seconds (kernel)
128 hMCS in 0.000885 seconds (kernel)
256 hMCS in 0.001612 seconds (kernel)
512 hMCS in 0.003067 seconds (kernel)
1024 hMCS in 0.005991 seconds (kernel)
2048 hMCS in 0.011808 seconds (kernel)
4096 hMCS in 0.023438 seconds (kernel)
8192 hMCS in 0.046306 seconds (kernel)
16384 hMCS in 0.091936 seconds (kernel)
32768 hMCS in 0.183085 seconds (kernel)
65536 hMCS in 0.365253 seconds (kernel)
131072 hMCS in 0.731172 seconds (kernel)
262144 hMCS in 1.456588 seconds (kernel)
524288 hMCS in 2.968407 seconds (kernel)
1048576 hMCS in 6.021908 seconds (kernel)
2097152 hMCS in 12.139533 seconds (kernel)
4194304 hMCS in 24.328049 seconds (kernel)
8388608 hMCS in 48.634251 seconds (kernel)
16777216 hMCS in 95.904604 seconds (kernel)
33554432 hMCS in 187.401007 seconds (kernel)
67108864 hMCS in 370.956477 seconds (kernel)
134217728 hMCS in 737.282274 seconds (kernel)
268435456 hMCS in 1458.485463 seconds (kernel)
536870912 hMCS in 2899.071983 seconds (kernel)
1073741824 hMCS in 5962.374317 seconds (kernel)
2147483648 hMCS in 12118.016288 seconds (kernel)
4294967296 hMCS in 24374.842341 seconds (kernel)
8589934592 hMCS in 49143.155477 seconds (kernel)
KERNEL=49143.155477/167902.954423 seconds
particle update(per second)=178989178.388728
