0 hMCS in 0.000020 seconds (kernel)
1 hMCS in 0.000032 seconds (kernel)
2 hMCS in 0.000043 seconds (kernel)
4 hMCS in 0.000078 seconds (kernel)
8 hMCS in 0.000126 seconds (kernel)
16 hMCS in 0.000181 seconds (kernel)
32 hMCS in 0.000318 seconds (kernel)
64 hMCS in 0.000544 seconds (kernel)
128 hMCS in 0.000947 seconds (kernel)
256 hMCS in 0.001749 seconds (kernel)
512 hMCS in 0.003351 seconds (kernel)
1024 hMCS in 0.006464 seconds (kernel)
2048 hMCS in 0.012631 seconds (kernel)
4096 hMCS in 0.024665 seconds (kernel)
8192 hMCS in 0.047740 seconds (kernel)
16384 hMCS in 0.093475 seconds (kernel)
32768 hMCS in 0.183766 seconds (kernel)
65536 hMCS in 0.365504 seconds (kernel)
131072 hMCS in 0.728329 seconds (kernel)
262144 hMCS in 1.452212 seconds (kernel)
524288 hMCS in 2.906451 seconds (kernel)
1048576 hMCS in 5.808350 seconds (kernel)
2097152 hMCS in 11.635259 seconds (kernel)
4194304 hMCS in 23.274442 seconds (kernel)
8388608 hMCS in 46.545803 seconds (kernel)
16777216 hMCS in 93.042028 seconds (kernel)
33554432 hMCS in 186.165356 seconds (kernel)
67108864 hMCS in 372.287056 seconds (kernel)
134217728 hMCS in 744.100851 seconds (kernel)
268435456 hMCS in 1481.465456 seconds (kernel)
536870912 hMCS in 2950.156446 seconds (kernel)
1073741824 hMCS in 5892.039699 seconds (kernel)
2147483648 hMCS in 11734.701624 seconds (kernel)
4294967296 hMCS in 23519.790556 seconds (kernel)
8589934592 hMCS in 48024.614690 seconds (kernel)
KERNEL=48024.614690/164299.300278 seconds
particle update(per second)=183158013.426961
