12415856028556828672
710100233786309760
4155840352752516096
12468748035862044672
1666974885473113856
1777204130762523904
2394859992919719936
12687286158634500096
14646250020201394176
4050115731963982336
958619755442072960
10545620302867533824
5159397463411513344
17054311541266886656
5219275217223161856
5534453278007962624
2717802599851597824
8170730866205834240
17836337559774865408
15584705833809645568
7821676984023203840
14519192452236441600
1588534493911659008
9266040231933913088
4910225696534564864
13519379260421031936
3871157711338916352
9040950693593673728
844468269605581568
12693958159047829504
15750426281537284096
1498780168082959616
1031568508632221440
5587063074218308608
1995686451427768064
5210774564529946624
14948842857375199232
1464825603820613632
13992273548194535424
15326857198061043712
5099404129795684352
5746967194281781248
16980539896267732992
11404991147353372672
14523219518359029760
16370535591650498560
2536703857772964352
2814757793333168640
17623242690406866944
16773899605697658880
6208925179430332416
4973857660339813376
10986398738651887616
4666732613472846848
15911891207348826112
12659842052047265792
3863565718940397568
11716072852379711488
17670140845206222848
8267719189108985856
5639281515270118400
484827753861356992
11437972606079221760
8262064181988469760
5172634737248533504
13831629300453578752
13135629424982775808
14546553605965864960
7618090294106792960
3801915147346693632
7304969916114827264
13398032416405217280
1284017083177597696
1313884893833546240
9832005793266116608
5189865936177026048
2969936628945161216
11205168426479874048
1652795219572816384
8422514814150541312
4077259368402960384
10443497253652826112
5848344159237551104
2817130516863474688
7762852264863515648
2036072392713656576
10754446732379889664
5676881721954931712
7008689266556283904
15022143118266509312
7010034584060869632
11072689217392353280
15049734384704628736
17230892079586265088
11307628303219830784
15975355795621005312
1093181742449603200
8692394314860711936
8115921983410866176
947382758875755008
3777176724745675264
15291405226162638848
227830165076696064
14993851635258114048
8280381748245824512
6683818116778305536
14161932904461105152
17940708619525419008
8221159564999080960
13510750244774821888
8200574704147507200
14687086366672058368
12454927866146512896
3774285024781480960
12472576118762985472
3613853499391328256
9349570865247963136
12220026334449557504
5642498657050341376
9698640221619283968
8234419910014278656
1564374022983463680
8896347083383535616
5845971254955174912
16218787641015756800
7147040741980679168
2766660820841389568
881437472520370816
10134377206283563008
14510093829126666240
5546611356323377152
17486838900099860480
3478328945118532096
1518351582428066304
7230665671794130944
9073022383529531392
16794525615256659968
15604880905171417088
16284310975569508352
1554732629173435392
1503292305139619328
2369485425746540544
8449389209835214848
8324749060196914176
8139911105469773824
11854368525339045888
16769833139075536896
945307585514062208
10385094458461188096
969330010480225280
7389747729896080384
3327810181989547008
3062234293650357248
5519516519772182528
6353325854976148480
3827510380738779648
17743073469442588672
9192064686454164480
12943602266270423040
516530199135306176
1440773049166061824
7870902711076763648
4870074062299794432
14273823495534780416
14865644656936327168
6894810200498852864
12922154470515746816
1710528352764700672
7744069912776811520
11702762434348969984
3765329339189877248
10193256624629401600
18084704096972165120
866961198785219200
8210209180213651456
5919567126998111232
8495767964493362176
1827396791352749568
323762648855413504
8142709032096713728
12643463103762753536
4096234127965891072
3974065772752555520
10909139579370129408
8395832121082829824
4733892325508089856
17924957858339700736
11509905881158156288
17642909667156969472
9341200577774102528
9494405633711831040
7682702392009041920
3163383033332367360
12030711430076096512
5428451369750650880
16874875721476007936
13048460728351692800
1699884534046707712
12267327263694397440
7575202041357198336
12190483379254800384
5949105711548015616
16707940123645102080
13656523640560986112
5305428173375912960
5600039436040330240
13131115400976369664
13900288969370869760
4618400701149750272
14973366827831201792
7247905442524475392
13137073582716538880
11624169360867002368
8539989568626075648
3732301251752410624
5219442467665701888
14667070835950288896
1873859738520010752
12769920431747856384
11742758098013462528
16489750923244136448
18062576622354051072
17991904849385172992
8299490690788299776
17425475091363098624
9129819054853302272
11123893827026380800
1733004499116459264
1105497233230263552
13475149294139338752
3015626725598543360
15796202466160044032
1581200450745517056
1152717130646728448
16860764941799575552
872011276132082048
10764361191437893632
2798683617648591872
5421167459689802752
11983771605848276992
18094078504719128576
14695692878760400896
7009716449465376768
8827185146878469120
18338025477843390464
16536379277593171968
3780777490176062464
381634863230676480
6696294962965393408
2525518378446305280
14468854716546138112
2821406559888074240
11420892119194456064
3615967485152871936
15028911433241016320
3909236500388782592
10826529096164372480
12896306304112132096
12088003015097759744
6243864476649389056
7270769889633662976
761906120541434112
17881698564143609856
17268800549141798912
2093352138714806784
344967879788569920
14024298215236329472
18312013786496858112
1727262825238132992
1198291680592235264
2095692568811649024
4154615078193593344
7441318247582319616
4951194123507971072
2379277504677415424
14360472918201290752
11956266638328291328
8879334755332927488
8786102757732972544
17129701324142221312
12254633266359328768
8412631476527920128
15834251713306636288
12582017736183054336
16114568271598573568
14697813764505309184
3531783160545917952
2782096041136952320
6632066871900660736
10724588981945606144
5694427156509174784
10257682116406220800
7196425331714027520
3947266638441136128
16139874866635606016
6394462791561457664
17811550396483448832
5642512848111380480
11303924930914842624
64433967387682296
14025537071404316672
10722084242722185216
5362799064508111872
2643121777443778560
10386669279058612224
6974716353536614400
1225399689082051584
190143900713333344
6587115004383866880
7147878620777358336
6078950267790846976
14439677420790407168
13762965190490372096
13456666276407400448
5597556476401258496
13578636515758979072
18440806505138372608
6101482630834586624
16329593977607856128
10896145241862432768
12260585552399388672
5641698122142627840
8378723352789778432
4420618931704532480
16974090183236876288
10652056736732229632
4912443199018149888
10366205509190313984
11445874438930419712
17369877907550820352
15407192968788408320
174888589737550336
3351316232359564288
14454766359278962688
18286962575507322880
10524602761011269632
666720000687862784
13975252234562803712
17542742850559143936
15089639827654860800
7730671044898853888
4204770643494800896
705474688512870528
7263324322001397760
7275000715057406976
13669339996176508928
17738850213709953024
8014638846321845248
7221653909343241216
6285423115387063296
3921512112614465024
13490480515842881536
124895777734624112
8819151301467601920
8821293578205362176
18389040419211798528
7235210080971038720
849339307208221824
17974877713503924224
17718212694422331392
3885612412120046592
16744599360927813632
9393212153751164928
9208070047696936960
3916743327530156544
9745696903768107008
12311126911174047744
16583103532002439168
16656467328769449984
2105411523277881856
17269886414164889600
14490713045713057792
15207566179671767040
17148709177473570816
6461602964759038976
5611817177053516800
9049670233599777792
11187675709115414528
13469871728095971328
12482364007572029440
11255423564577288192
4617177358609114112
16716027963255635968
10946015890228578304
13345932763928242176
9676033471245340672
5655497057993742336
14608844994310608896
4121123440313670144
17090265378283190272
17095292742542485504
6293891558522265600
14527232655805714432
5453718324434281472
10307750808386652160
12274320708437950464
14523706670018232320
8016602033168802816
11050698515041048576
13557349445210034176
9906214249135687680
3270703858188251136
7130526852066771968
16291868896307032064
12693920347431208960
9073358656987078656
5109963925957506048
15635200268094201856
1563232503798818560
13402628551966943232
7689321277964922880
8249423529077966848
12526004319440564224
12001348930417764352
15640910441563115520
4014550320848938496
17371076439709677568
10356165499836743680
7276308368227473408
756164248818765824
16380120908029607936
13039412186909689856
4064206429940234
6615209447299399680
8924233936857320448
13409255981044051968
3560722144100631040
10556987450551207936
944856587513574528
15265028940370061312
7075770758739276800
1335537181161524992
1751503444741649152
6141529334638904320
16122773616319008768
15778472473070323712
15869880512811618304
3752734174488125440
9320129952159825920
10984663403730255872
4916519228776160256
12180550696275785728
9170313026222542848
11900137895526809600
1312657083273558528
7235450326401619968
14256949189295124480
16340477206694572032
8160109287624779776
825455173241375488
776690409475756672
1551375608151045376
4722900245424052224
9650083129732055040
11606662047333681152
5868909078403643392
17342747282993991680
16375157780064630784
1991144816174956800
8301132564478759936
14898680314947094528
4023810269502358016
16731825063666130944
10261546296548534272
4696424402350202880
11839225910337662976
7559055591235544064
919955459766791680
14780568551754149888
11255784785363607552
5706652719034798080
6833235535303741440
4672372407847003136
8205995857577361408
18365990337665724416
10105551912862982144
683410673785664000
18341472267445174272
12114418868026331136
14889278115410731008
17386827760482650112
66827574785633024
18039939913888747520
13784274064092272640
12497095410014572544
11150028667063670784
11198817568544153600
11770466554753083392
6244187950869079040
11218018073484099584
2281464271621787904
12943976286188044288
3783398245897757696
11855085393089175552
7594271977621847040
5445494187890128896
3936281363371409408
13979191567528230912
203070513009926752
7803079247897347072
9547007659858472960
2792199430350928384
7428272831371480064
5891229779298111488
4030526861383351296
5761826680870608896
7896791602446931968
12402147454875863040
16204759373106423808
13019620660727451648
16228126516849846272
3388763853141005312
10448195941598140416
10129193379771222016
13599606065439234048
17956492144959098880
5108003933162249216
4435927582131630080
1238008463350234880
8066688425641344000
1572974218215202304
11521422218942521344
16940220623717683200
10005148830179850240
6469578920804369408
13906062204392554496
5482860779511567360
2654098911200891904
16273839096642678784
18111167630942822400
653909777317927552
4074174650373882880
11031998641007609856
10315361712055973888
11352849669699102720
10324098573226921984
16359946602320093184
8234894135037109248
1319905760154731264
3807982190258875904
5749770616136413184
13186813333412917248
13068899504860813312
8833818310655392768
8403392428229688320
12422216577816100864
5824459080048780288
15536376247271559168
13616818738675595264
12423218519170469888
258776456156290592
3686028045114889216
1709819753251572736
11445161768283430912
8668890473475315712
2840585475370908672
12090698589309210624
293513653143668160
17788547598484305920
758745760134065280
17499209176938799104
1036046043769643008
8780856699111840768
14483328104485300224
14192385146417016832
15496604027876845568
8539479322357641216
3829004938567804928
15935161417108115456
8623282933363676160
10407275137608964096
4204321725893309952
15348022181498617856
16641372036525981696
13330188863592230912
273214195281433888
17879227341297070080
9032362816978530304
7139886836902793216
9645163222690152448
11136732439131435008
7418128091873775616
7859178219775565824
13240716650967527424
10359750988771663872
14545004065412395008
17197552711804377088
15316778228566726656
17480246604622202880
333095076214342592
14933276921249548288
10156484303291271168
6272219923859485696
18428609423285401600
11074413773664679936
5605555207400965120
17311120424687947776
4765088452156257280
3718472948343488512
10180421788321144832
8999702883987505152
8373663046518311936
9715168791400007680
11418680884016244736
14264919485817495552
7207973197771015168
13742738950544572416
9293245159399917568
1365209576676157696
5650504294619621376
3426302182570852864
12599261141349056512
5541334462743473152
13056318384858011648
9465572688811685888
2587065113419346432
12660449014549354496
16004867864444669952
2988867094828653568
781457453388594048
9211709595603618816
12926720901604093952
14473683632259477504
16223900039137359872
11618682189034997760
7660389347533257728
18444682354994343936
16981731687101093888
5988839115816816640
7535785479791524864
12508636447109922816
6335891290580709376
17920192907013359616
10340900786760566784
13565019363872778240
6126650986843230208
2900199871271617024
16223960158377121792
10362498235209158656
12144213384269443072
7549294866886001664
9840445311909629952
11233250935612588032
17952397772398313472
519288780230760448
6167432754412889088
6949739151153116160
10190300464207316992
15343485901655216128
12790910301305147392
12572849982261719040
14608191718954098688
155233406234336256
8173289752685973504
15203251599540910080
5727578812031209472
11145858445356263424
4410230307855783936
10282455344629870592
12517185407053592576
13327841814475714560
16352605421694785536
94800442916353024
9612451185832724480
13652619223659016192
917084046900455
13532785844764479488
5871840718801360896
16377865630085263360
12929420322576871424
2820707916984009728
1208254797873430784
15174277495842818048
18279746383917479936
13727930449162901504
15427857409519634432
12904993461052690432
1578419921559867904
8868437373557000192
16543935555564648448
17302210806166794240
302636287009315136
859982055928079104
1607375570864154624
4077859828915189760
2186312438887668736
9497345458065993728
12400690347386382336
18180411810133630976
3574797135950513152
16189497684590843904
7668380703621453824
6364196214378152960
15083209783640496128
16237149592300380160
10748936010179643392
3767469090336849408
97120066016913856
17804318043775686656
7375120021496684544
16282157036194387968
13085872068572270592
913712061471945600
16096210065216045056
1936615180627493888
10035383609675126784
403116099024957376
12816220278162120704
17388107598008543232
14435141482626605056
4375489872809387008
742629793325408512
13860565156350992384
5773260832100436992
18042006118358372352
5352968512325054464
17591720720957964288
18246854473651165184
15814505671866009600
9165966349598986240
3532270562696932352
5494607127673201664
7436941757173796864
8811756059575552000
6731828028258076672
12230835474205904896
16905406771650832384
7409425701120619520
14076580207940345856
12553069773247942656
11697166128049342464
4985747889939243008
192555136816272320
813948843149716992
7343959328298441728
1343197340663448064
3469241738902113280
6500854235983791104
13942678865823078400
3090551953262551552
6772848722764653568
1383571368996222720
11632300210004103168
7507267988079917056
4643173068811348992
16643132953004056576
15090838745819844608
11754170134835535872
10342205398813779968
18319596849463490560
16213203266977263616
17626890048643637248
17599985435228733440
2086889021551333632
18016971965546827776
4793292565780617216
13401565509418964992
13270946744197087232
5201556541198295040
7971566397570306048
1121713419679468416
9983787808342900736
13803052082800715776
15059617465342099456
3655700586721891328
10218870638656927744
16928660379565537280
822834747671278208
5913822725634843648
12365731018747189248
3006423584912697344
14884211124947249152
8883019870208536576
4266601197450474496
13006842254829109248
8961200940454064128
13427569736170375168
8668793916075678720
14623496851862173696
14105698852624412672
5699102433111242752
10179893946146779136
16362241351355803648
2710638900151100416
4138840900248225280
10092521459383398400
12121505521363380224
16303806863153657856
17323112055094452224
14258733472454246400
4446679274774672384
7515670000748652544
15499581642457958400
6831631979627999232
3930722648090420224
14441477216394113024
4217472848944133120
8321923603883762688
3395326065343352832
14698882495009361920
8292360984695779328
6701725711953715200
11928213734817464320
8358104544849473536
15314834669037279232
5998912300536694784
8146788226623795200
3484487832378163200
2946324591219756544
5494941748492921856
10620454300940009472
14757081169139343360
5821905390487401472
13287575356791580672
13650450484159281152
9196283388031374336
5779259519705390080
3326890586185648128
16512524426419279872
6041730866931659776
15130987518683774976
10637226530615926784
17343790124388063232
10480073543061159936
9972161990983768064
10992388546914256896
10716468334809427968
2047116101702381824
15040584265567750144
18014184181142378496
15887833287072780288
1568809667295188480
7365499609398996992
16767259705108682752
14110030733047398400
11554965862442549248
17970053110179364864
5495497542504275968
2343843866764754944
3589012726215588352
14114146006791825408
2088754976842805760
11436426990098948096
15050422455900706816
6966984445004363776
14314464880248037376
10494927952560959488
8140153975350077440
12416956831472218112
6180638730047880192
7212525408620315648
14130776214597910528
3246943738439491072
11597707480342568960
7185930034515724288
15008889963753990144
11005654856364539904
8797737254374756352
4910543742989844480
10228651711970484224
8283686125290129408
2382333240420170240
16657749467775049728
14892646081553858560
12880576394305378304
8719847111506076672
6663704737715205120
17856714947787966464
83011005507001968
14302778413567477760
5418622486713546752
13215240173849876480
8997836033751371776
9991693288244865024
173815811484398720
14217255288002398208
10274480155954114560
5617018811262976000
5685794566510720000
4728823650045425664
15892732335215781888
5617350678965374976
1813100311840166656
3732749547349072896
11053727069603991552
17128465259425112064
5429963765139485696
16676665100485494784
13886193832393025536
793303888381477504
3741905989502969344
9661666590199013376
209010536102602336
6453907965588539392
4315521093918865408
8457624676497354752
1712164700262796800
17639062834109329408
17809500872377147392
3519955520003852288
16047663292029335552
7056723053721458688
9398714371187879936
15806960011642048512
8815381960477591552
6334393499056055296
14501497320741971968
500615434128557504
7275415776697100288
17183523546903549952
3356082722422456320
4942543363688139776
14996186213789583360
15563943394850344960
10009143289257095168
16210183696643506176
6798349882208949248
14839946337695344640
10758180595886714880
11822918552701698048
16611154751323987968
13491617685816451072
17118397607338674176
6837574568906498048
2155443990645350912
16091840645356167168
17173680190689908736
3733215645335417856
11828761097431726080
10487144345148491776
9388721458717499392
6068733481107220480
11466219017282217984
2361526133814930432
17540596603163672576
2217668220330256640
819107302682367360
5517007582022390784
5036259129223746560
15715649238602133504
10500453781652502528
15032206367410714624
17394535488996466688
269131622578579648
38593592784342784
2250011923126260992
13198239068617738240
5013210154283435008
6119200639241771008
9135792085684898816
2229716307674887424
10827650271111110656
564564537873522432
16758557072483997696
15801873630148548608
406266439064158400
17504414398344853504
3407883341547252736
6738221195579255808
8011518326960570368
2286230190605574144
7941413493355182080
14198326053623619584
2788569818000164864
1776917751309361664
985179910622388608
15035065396465381376
16730899895535298560
11441519866540169216
12761148401927172096
11462153308625133568
5839815082820398080
16642039977401886720
7146164045403493376
12499957647520958464
15714940566180491264
10754680496206706688
11484787097002815488
17431062866573254656
2798238993935302144
15120725272357474304
9624551402786359296
2240088899462725888
11541143039320813568
11715730685879050240
4690093058841780224
2985919873390297600
10704665995949006848
7750502205572426752
16445874961686720512
11885386640788582400
14970183699672520704
8430002729436850176
6103104774876993536
16476838418398054400
450739556075835136
17547135040984659968
1052217275028332416
13909522999102955520
6581358764336778240
4982373995961751552
7057084453756066816
6825903429902850048
8201885109607360512
3186122819757631488
7111086977840437248
11430301013991155712
15843137977112881152
11973218792351459328
8547646767309388800
2855143402740758528
10167696963663243264
16746577208373061632
18156045853648113664
10461031795753144320
6183590692572915712
16452074584592488448
16224434206331510784
5015002475612786688
9115741144181790720
3193975472610234368
11125739186824448000
9825205383138553856
12579421898934454272
9729633898621462528
12017114474857592832
8593074263405420544
12945471247191111680
4626840263990870016
10091719378340855808
4163717001368340992
11282729087907586048
8076288940943048704
4402499574373833216
5344932879075957760
6345059503360068608
10875845432012437504
3493663078414296064
17045506230938050560
6842089541826620416
1681435431641459968
2955910154093158912
15788575828244170752
8279948056488101888
8521026245874741248
18110381392335046656
7664261958912167936
14991836874886705152
3135214316195279360
11691504932074336256
17515736443995551744
12349151859271559168
17198538562340112384
2762255472749668352
13219142174148388864
4454498353603555840
17943455380215605248
1350440132883746560
10910458707817324544
9632175271779596288
11870574766891186176
6143573925372968960
13231969368846872576
12899892751336308736
9364670571212165120
1132326780007537280
9951187108144623616
2440412951079685632
1304721639426339072
11154382617779341312
16942244935056300032
15053356938594353152
3086982659039734784
1208310226793229056
14820007491691479040
1849157398844120320
7819683685785109504
7972682733023026176
16876034490057418752
9485051626333130752
11843669187184343040
11463881815671998464
17352068600846239744
1922747992044876032
3110193082052721152
2800957600449198080
11621192526264649728
16890828465356699648
1724822280647467008
16797938866644303872
4508510344431938048
3764813073836979200
12859973089818966016
10219131255501588480
11837567372301697024
5935343627524910080
17111175590972274688
18400240016686174208
15324721511095414784
10117620767557128192
2943363378797362176
8639402909299648512
11322583039508234240
10179943519837345792
7686071641205363712
16898300118986616832
2922943392033216000
9802454247760220160
14491723155076808704
14314763032446732288
5101965446826481664
16126463964184961024
11693035532234401792
11175572040301010944
2902566045210571776
5867633447384818688
6416408825071725568
140430765831275744
3908604256990178304
2061156086726964992
14338727548993083392
14069352043841867776
6350296769143777280
8783064320985481216
17335463375661012992
17956779647109091328
16369664446779189248
5895023098945584128
14410468657646585856
15998451462632321024
13069237464762513408
7265336469826009088
5107262962323917824
10068704343103696896
4233049409479798784
15989773398238203904
10821002030347339776
127050731631294144
17967647672425785344
2546020215638336000
16158149992678406144
17402404100719355904
5499345974634285056
6957140593024967680
5631463981489909760
4780035361594207232
16602859313023303680
13200270547474921472
11497400135560171520
6441121556927691776
1334244339975755776
17897855014874613760
5001913925394008064
9522273859817279488
10331195118031333376
15901778079077126144
3263726952921595392
1401404758768790016
699318806098054016
10438316146407931904
5659734517239059456
10641478249443192832
3265756017440656896
8529094851336331264
17906713381042513920
8338005823100749824
5486145872307375104
4013631432846475776
598953226302248960
2410690490909562368
17760249420879116288
13827029304604319744
7576508695759944704
4630991894143535104
5164474151941699584
2188696627638305792
12462755733771630592
1286272081179963136
2979884526448135168
1039416010219967872
17008268200040886272
2644681601994811904
17046933248557780992
10246697970278793216
2618685536460238848
6087395622814724096
14329217635361083392
6509775559302211584
2973097641702659072
14827865457819131904
2933741757050438144
12672044069464465408
4945937681558705152
2125293262063657216
4048076259277068800
16595362761619851264
16459876819247759360
1507429171517592320
10356032096745265152
4146589145925639680
8631454183998488576
4724664338119132160
4925862388887190528
1880955855857033472
4036817557637246976
12017567896832763904
9436365767983319040
9113542692084446208
8843084644276924416
14173580235313600512
8638867592896239616
5230957691095658496
14912520169640445952
2074127002226223104
398803643796823936
6104487047604729856
18395810478122829824
8675737483325575168
771854077862427008
5053267413968564224
7118389556297337856
6013842336112083968
18032261695566223360
16479211684713676800
9042589835221776384
11083928445668268032
4683331263672045568
3658455579052698624
12767305859761166336
13446934106501193728
7497610464091282432
15085973219212744704
15643721009372780544
7113407925301787648
3913194169322014720
358715448442154432
6929971243154705408
6899746834475750400
4036567657702822912
4008744315098812928
827209242255326592
12895990602270773248
9058463668492931072
12381636706121152512
17084612055805835264
9997664674538174464
17479327072167649280
1521447947427182592
15254784150574276608
5391808411085809664
2465632009310853120
1551422413617251072
4181241131318496256
12821189556515342336
4513284958844167680
3444278584382585856
8773661066335285248
10590332738995621888
15102305411246333952
1515455597900969728
3567292808177603072
10873468807206578176
15313506220530892800
13546136687897092096
7260738057234134016
4985157951221877760
8660567707333855232
15609896733203677184
5703663501737214976
5725298841205101568
14790799912702408704
5005128530162391040
3533523608178160640
11875152994217039872
3727657074263575040
268933491018409696
11811265635173531648
3895842309183165440
4767738601284238336
5729423109200140288
14192016466719989760
3590611973119371264
3233802006530756096
12485786213801347072
8014099685659856896
1847005520961509120
5389239507310907392
3563239776413404160
16347631400308398080
7460180247551325184
132484936382391664
6863246204749026304
4281550768429323264
12422955273922568192
14680438323702896640
18084669645985329152
14750921317685663744
7019339026408008704
15123755095437080576
11237364636594305024
6971017903949686784
16918373515888588800
11074931796863242240
6720237118349616128
12422511647292573696
14561896578552090624
5139647857484965888
8460600795164649472
14200234000670220288
2481539552793543168
13381693436020441088
14091596884929845248
7686761588842562560
14307660556325300224
2587607416647204352
5672440022950017024
10286620621533964288
6982837526696124416
4754758696134726656
4127943499258634240
8325573243180583936
8442967245137965056
6558221424074193920
15536198822204530688
16739768038521196544
5657684070553554944
16045053285174081536
3519897539694144512
16461349609949321216
1379417916757242880
2405390494758252032
5382082241401251840
463414745329267648
9405834887871989760
13236623526217547776
14582321119727919104
13492295451935164416
10928786890552313856
9967898828985858048
606290338933641472
17195935265531551744
17146779282374576128
16417577030286376960
4832668620659720192
3883993767205154816
15412919554766675968
13514530193276913664
18363559616152494080
4014278226881285120
4276538682332322304
8628568477787573248
16892191932912603136
15443733087367985152
6005736762560812032
15401190720618221568
14004348724671285248
8871104737853106176
1896049027265498368
7538019066360138752
4244206137107692032
9957062423142012928
15750625414822156288
11525571600293466112
15309086795696037888
13564193255743426560
7666671894409984000
9454776292253362176
2333713834143682048
13728677859462610944
2578362265461282816
16373561432644780032
5331063326762975232
8616919187736815616
15082670547258218496
10199869875607805952
17266792821793056768
11351050582290356224
12692980227672315904
8334152336305246208
2239966505044986368
5202545357241491456
8822296936030905344
15357869258319333376
11888442421298747392
9889297432382584832
12178057584896299008
6618659038311290880
12679090495949281280
14918586218341517312
10752371814702579712
15388611653275957248
1611313529196610560
7573077129189422080
14163344142996436992
15926363799443156992
16985604602667393024
5041304989474899968
8254734552453142528
11550261471980652544
9722577795639699456
3972417399153559552
12711138021304012800
1998047438009403648
1993664130241819136
13337731868015493120
18089293155994472448
16454478350761033728
10087218610773248000
1268235929498453504
3836185927297519616
10811363763204300800
1491475866914349056
16558190594269552640
10959256976118802432
6709336739548762112
175284397448257888
2306656172591473152
15351833023896899584
8878964676766509056
9332945327221235712
13274894561241530368
2014089266007757568
11092600184470126592
12358212464756377600
14040353616134729728
9717528267031480320
5996490822250371072
10575467095024355328
12623867515675269120
15367197646475595776
6758329085221336064
12243272890559297536
1813498862964614144
6539224540237726720
7074829158760995840
4168638656160948224
3937623762449606144
13729339255440144384
16385024640062492672
4012189410599465472
10813112887005505536
17180070264032129024
3384255278786332672
16982530551802355712
5195230108217936896
15956924086199873536
5757220985610820608
1762565787853560064
7567164963678532608
18235305478436548608
3512259790946411520
17315857959106322432
15593130062619242496
14373795676033800192
6191941591618344960
16617871072798351360
9079763325235173376
2998421054801350144
9263894500210790400
11356847742112999424
2493069779682218496
7656147342573468672
13513612571888678912
3269267416456140288
9971262169954512896
14107988061164158976
10702207541482471424
6101499124779920384
8098822627757352960
532440073173393408
13766163871534620672
11577360795380267008
14894735782132498432
3938561335099005440
15162297023701286912
11948891698936791040
7796432155734106112
8491425546852893696
15589250582630254592
1363724829653790976
1069603669216750080
7295457442902403072
12158786659561070592
10506737701701412864
11621752747551279104
8610195487740149760
440448633294467456
13299941763315044352
6518088724526484480
16608464410125789184
14018534202228652032
1410271097781658368
10096685156115390464
4366438117622455296
3057070234595594240
13218492105451653120
6229199172873553920
4707415773961469952
1471476160523603200
1845812012445513728
9760444371480594432
10660664157921662976
5003023424865582080
7576991249795426304
14513875075463487488
8792146216884861952
14328530158792271872
2437282579469732864
6089941274640208896
11340075114424248320
16188864357963661312
7455906601440056320
15216581826994542592
7691042523896749056
2142190035550286336
10253406016494548992
13021242263795607552
12690669043963019264
854188147943990144
9165277262216599552
14855429008828821504
16608247173628762112
3679040956337626112
5954021155726394368
7870056527891881984
11579684326150012928
4066383616211149312
11941924448945049600
14459979086853918720
11733685389710297088
13192684436084494336
4517411898808931328
6447188196674597888
2128999935407986688
6117329192448634880
13156708198982871040
16953499098704609280
17429709039131865088
17565478132866850816
17975341921996687360
10589197212835903488
13942841658565623808
199665416355576064
14587203928880990208
8981815993809659904
11329948762711742464
11708953783222700032
16756584752323403776
17977447128680355840
4125664437823417856
9253882709729497088
17675041020199954432
7698775015936832512
15629505605443432448
3800408230574934528
10110435056155482112
15628850779677272064
784466529833242624
1119275631512772352
2998392011088817664
1815556416704732160
890977997317085824
14661194993243949056
3115998034610818560
4514851430818942464
13502802473597378560
8684339013134068736
113721772473412240
937980408272252032
614674396935042176
11101323655978964992
7314728391793764352
11205179852990507008
5109558391933011968
18377754938959144960
8521647336638525440
17805382863562502144
6229784923790990336
681615444210802304
11625948643558373376
4711287589995084800
8333680024406800384
2616402171817018368
15105423679282253824
6949369949078376448
10192010620040593408
9430279685995591680
6900168037646760960
14611373683574550528
5813243245171983360
5005207041370441728
1905847528827126272
16588663997219252224
1719429471778267904
10557204991280226304
15578322629220784128
6567227052169556992
14223681754819532800
5825444068346697728
11924869213048573952
3529035502142185984
11281294052057253888
4629994083399477248
12614410642998626304
16966821224188823552
3709540109693554688
14550534600073093120
17245191259499776000
11292407054958092288
7124014806016419840
6343448501432839168
459389407602974272
3280543560569890304
5127558569003125760
5372667284069451776
1301343654900503296
4300029550001314816
5975308589893346304
17827950902695241728
26370781624421240
13924595745520218112
10850683027295055872
9536329191797192704
12395804282609618944
15017550214062530560
16958487170064175104
11982204542287192064
12753203189213040640
12914473082336380928
14549700424253585408
6686231340880245760
4491261669818812928
14256267494095802368
12868680378281060352
13017852732067424256
16658482019604998144
7051389123057033216
10317841782782525440
15065690668210380800
7182273583841794048
4625989018926667776
396069425701522816
5103543783259103232
14798557582618011648
12963283424433287168
11830166277695078400
15757165143830863872
893263358639312768
14838991644683950080
13920777939029702656
6491833012406221824
9628614805425108992
15635463507390470144
9050039970416680960
12077263752214949888
6541795548593760256
5335844161646572544
989226596384567936
16573117132955719680
12413966616331012096
17611220405825538048
9900737150696394752
1614604860847978496
9126339205958520832
5946176562231441408
14257187346351890432
6338429671688199168
15435363975067039744
17613174083411689472
17664160491105165312
14427379810393536512
10402395660612440064
13590142849989550080
13219740285504862208
1830716251933791488
17722295173951186944
7612215137733633024
7826760071687265280
18313182858868946944
16116559075773227008
8555689520748206080
8223517465242049536
4395981823694315520
10740979045222389760
5514071366993594368
6097850497364850688
11657756583981350912
1253469026520442368
9864487422446567424
12565295187593170944
7504374776166880256
9170398863145416704
15869053313618513920
12905811838402228224
6189735794734866432
4551020706263180288
20080803659456104
1241639456130147328
12012432091966105600
10920667494036873216
5700677304616757248
12019202603789131776
7804696205012370432
13438521259595831296
877394443012936960
12754557938255534080
11702346488225976320
544603971017542208
11767154192546592768
5507613591080476672
5899986553753566208
10406965047752265728
11372583953034115072
5075897911605595136
8725452378579840000
2643753745622747136
17901785245336315904
3304296561153278464
14881682183504326656
16148289920489254912
1382168639651048960
7749501209748134912
813788773262561792
16111742345301422080
6909245321012894720
9514791880922425344
4618597808943340544
11117153017735979008
6093199083002241024
15252958535656865792
322389347549381760
7577447458084831232
16875415225477926912
1175679338817764352
13538324671037804544
11782898322191491072
8470541846331816960
18223904599973115904
10969783716060616704
16796938720000968704
14838529781423183872
16130639282570729472
1673000710383083008
11047892214187192320
7168059008975413248
11343150923615778816
6240840049145917440
2631844735862073856
12658095736363259904
161554712434658912
11880771267350409216
17149885443511672832
8575926971224456192
14643674325956769792
10568758720593860608
7617564551831661568
4259191292831753728
9557622295703558144
7742251176481795072
17848376020344700928
11010534879982667776
2757131418123687936
10332921533777391616
9740280308123934720
10382711220168038400
13336556811343024128
9644822685925343232
6285193520334777344
7814211550776011776
12473257326830415872
12079973729699217408
651653603945770880
16918438067129018368
5997362654377537536
12545064286478278656
15957717152345169920
13130742676458579968
12573453399333609472
1321695329944250880
6741517259089951744
2313747398772511232
1084387477200384128
7229350702203674624
11387713721358678016
15044129675725162496
11703779431381565440
16611655686850834432
13806462906477666304
311807790611397824
4163131629717730816
5018648010487535616
3483290108760686592
16570382208448063488
10029201532135856128
8675154426135646208
2740083692959055360
6922199576028821504
13637924799566475264
7938302750383224832
6245894558800066560
10555602067822962688
13071663468470816768
16819659347268630528
5024655716219031552
2995034488494170112
5704429428370045952
6231972263602680832
13997669628959504384
15957487726806104064
12053166113443096576
4153439225971831296
17407767924495288320
3545220663480508928
15180583007766611968
11001536554527477760
3803482839048064000
7009140246765585408
5339919605250292736
12708211386355066880
7211957722453316608
13035880124431142912
12641139318758981632
11427391364689442816
340393002036590336
12717137836380864512
12022638141346478080
9909868183762089984
2616973876830535168
6467594203352568832
8817141716251372544
187217595111612288
4436288682263308288
6677983176113469440
16424571407898695680
13674694961702236160
17198748194622349312
723986029120923008
14620864999403741184
17237616819473637376
909346966733653504
17689382702810689536
13622627012664625152
1323933373711973888
5463079975995986944
14179977543669067776
2344049243588369408
9243697447123484672
17443234069075826688
17049225064963086336
2017836899891496960
4129842934413914112
9596253375616280576
16939595940434083840
15408130302052462592
13115949182739781632
1296966482982997248
11402454670101331968
13470113062381008896
12557514002607089664
17547725165509875712
9796569511889324032
15593689080371529728
17990602685503873024
14508120867078711296
2738783094727228928
4071068212901813248
8067678862967351296
8379619932157372416
14993364873614954496
14346324561205929984
12849046516685811712
8988415218477464576
3924199584908405760
6061733601436269568
1809941660131123456
8744014844472029184
9275143984147243008
14092460838911045632
16435945343853387776
6987108389988126720
14765326675224584192
9411515698947028992
14774686022295955456
6863045695181549568
1515704511138178560
650432430196801024
8538091861388007424
4584818114504113152
3127565425639200256
9626127299705393152
12197056644924225536
11666377969308110848
14497281241380634624
15305347317791016960
9388365510143139840
10811948865075480576
837961293702874240
7714318175706336256
8406040049168409600
2194488838377493248
6322079864952193024
16175544467361009664
10009509208653768704
16271956418072080384
3812828531705500160
10088745909464932352
2923965970369344000
6508370124777879552
180101428960388480
6237936880735898624
15704507431625697280
7856805395117621248
17961939931183509504
17014164857866518528
3399371491439672320
11880578607063472128
5682446555402847232
1264324997110037248
9287227494957555712
7680036882711677952
5665825979541171200
3215485358588358144
11132106859137644544
1614639051106819840
8251051453919825920
9427261174897516544
214833172443860288
8653991619252708352
9101007362540558336
7806743652427173888
8430958252420208640
10249601501422143488
13962517627068454912
7639330023288375296
13643441344048685056
7635088288424941568
10775730159104819200
10179699704421797888
13094181597781227520
8169194424450704384
16811336703113320448
16532058997210761216
5088134543378519040
11612220678797572096
12707621568828434432
6460706603637858304
2026892710767457280
18339912591566469120
8165367969271695360
2586535500935751680
10203162200456042496
7662757213679307776
14777415123488952320
11136625144861745152
4046728673275908096
17607694730962044928
1334847534784976384
475869732658507200
16492312066202198016
14124022923806846976
10947867430318710784
5870190009778300928
13976558524059467776
5258928945577810944
3178830207295302656
15343154326030104576
15072222654690002944
17618402799754741760
3045903438335297024
11013468566120310784
1444808829554854400
5357074364159704064
337547794816790656
9258824813908203520
10856995999029209088
3817800957517286400
5957069652590142464
3315015291368934400
8791640501880850432
4427337392435390464
9850660602756550656
17539995633435392000
17511948538357080064
5884545671655462912
16123068386570420224
10213779130210547712
16058921753217294336
816878384029050112
8426254829677622272
5311231224257218560
11682872640462243840
3969550269686073856
8994380781456203776
6414138113806111744
1934161056182960896
14427012459265998848
17353078132785846272
15856782798748766208
3790748180504015872
8367952333656606720
2133435449751476992
4814753487890651136
6360244342995402752
13974307289928304640
13671781274403344384
8108083876007534592
8367628556788691968
4063859472750257664
3190344648856734720
7144222745987053568
6958693060539251712
2404279182370208768
15582892058877427712
11805747361071550464
3643449484453386752
1149061816844946304
16299318202101919744
10459940157718605824
13529064066202898432
2913039342530215936
12160971208712644608
35363543386176204
16315258349323151360
7764372306189107200
4987105572721602560
11828500882215915520
14826560588150052864
11400011860516648960
12872141405999271936
14538467414043744256
1053317154854325888
4666329836562134016
13690668342548981760
8726446330011824128
6565814702035458048
4006139078852033024
664004262448655232
6557260148918849536
765857337611330560
4075908603574574592
15368949092821673984
15816631230699110400
7935207207320686592
280950218378435904
5578840039470184448
11965460440875749376
11760972642901174272
3878987106147444224
14310293316843717492
13101909616505681286
6764672985887116243
16078800463733277727
16133594101935594471
6459063265122237818
5481965870812425901
2786416577439253793
10437501864797188057
16953337574560956170
15582416791598999148
7235474411845481261
352339284607007322
4188141628860645289
8247015979348268153
1168028229712632711
14067254382588839872
7762922125171052179
16797247448240785109
861685199378116439
9025241323967128299
3050412822048883037
1783256312193301792
2657615333191287810
15035293960543815002
9261853781525812787
5542070845394316873
17815360947075350971
17732407141674043354
5573341997402096744
14488191716099567464
13040678663164843024
4100705660187402027
2358854466894009231
1618846627381172199
13906459482446242760
13347058446150634382
17940791834029613533
18018850432066393926
14538217212481969843
12010930271367355889
4037695007333078964
2904657885412673540
8901592644375599543
16871949977413903893
15512894284656944608
10380888517032082703
4460861855420167930
17610253315179227396
13389149862723131920
5343118691687353770
12003510356228448513
2497798049767941231
17102791591596469237
1979424117123583002
5239656863693964277
16284292174367798644
8274279961730888561
4576433120079313635
12271707076074687847
17213956216229207406
5512556748830635945
6484474582180550765
18266214010197458250
14919635681785560561
10347886715733625523
15566286485344268372
912949331437536755
10728396447379562473
82830842875109039
18013482106654636647
15915383293817644496
7032426679692155345
6217292802411075936
3255392733908187448
4077273352621422703
4602363345782148479
7925514588308410850
14110278152997951798
16003691582860134183
17856293950629150905
5430667763169240988
9594272648325797004
12190379554440373423
3577426303415834727
8901126618142401132
13446690400694275891
17576679859367963731
6428592984762620115
3177786274578298680
9385535607884766252
11592276444727414903
5430738223015192671
14419489934932356989
17614486783192400820
8842884839373687583
14040259767311838502
391151328397725016
5693038082574348716
15871327038916400423
13739736393490915236
6489220092053216938
15420834374882663598
12552795012047963992
8101625244829790998
15566467064433894239
7115041114859113135
4675638087542764478
17186993391928175167
2006976069112495612
8028899587563425744
5013566261690376930
16442336699440586147
11816473334038681433
13291851244748448295
3087548421472255038
2413616300027366448
10928562812310455652
7152121943162024178
4898433497104660848
12131889160388752777
14611680237187871613
8568344497882961543
15240236614388871858
12501931898653577828
3109573449910069847
9925985242997028252
17786740442266575474
12560803913631701191
10469267029642297079
13900526500726949851
10114055511971969124
4929755773438012317
10958939607253002884
3685173095614043022
11441684092725163852
5931952686889971508
12959308709508815858
16048765479072826154
15730527942472554632
17164900389371880751
13624299921947450687
13280427219842860876
17349419358032469060
3239070239095725361
9145449461889576071
4160270946782343747
7118523496253501259
1395293330665234109
5478501098828059305
10249588952652616163
10133136030995925401
15633397114047502716
16400022430053062621
14350680870573544005
17219756161687136687
11108418170693810147
17913544881835887282
4286163827664178758
11627223343167469825
1851302707280787845
9667980294848725346
1702746497989593331
18100901571643809171
5346658042362190318
574171821666947510
13241254202554161185
9922031544444470880
10157887214126440593
4440240900601733629
13863562060769245996
6354047992024011823
5353276250647931288
16010439843542113441
10317900422404789407
12048484149282848584
12121211832936491462
15007784880560476903
11568457706753382426
18201949591244748525
9695678858192893802
14154242219078255969
14147071843497472072
3726239240684829780
16958851343139986204
7016154058183109883
241075778750874795
16482286838867111672
6613066252341033531
9031209125110428525
9451354675665764470
10844800686248887691
15545915107045103059
12240955931329231950
6993501605810931142
9725906249064278433
7603435501427688074
17822501721303524547
15068169790970555904
14036166301255053691
9466979049939550390
7927464211065915701
13487553722281828532
3841835444186399393
12837792119459229691
5969051625273508432
17547737868346410263
16362519823866113606
613562582670090353
16985052202431152546
589563421251439346
8166620959795344017
3608418175489020695
18240707788959375234
2334256115433675242
14576419190113294070
16310064686768508123
10164282509252623717
17214410998185148911
4697322485010393130
12480708673108680305
7692577441000570528
13949118942502404618
7170516352254983690
4962563722840962001
4730358674880745539
12196177920276634335
7504333550113012066
2596634001944918428
3570712279610385726
11124103397535074717
11996339155641055257
11949539618716232872
7634726575287190325
6434272152533286986
14223616782069890087
8644027372042486140
16600855999645226532
11260123894437885133
16606708975610914579
8545633470683164030
4706045085014576324
1938201554555886751
4498529060666385881
3094412432771874997
14856906308218469525
14629942802966717731
11830544756738795479
14186050252953824469
18267433617474161786
7811283939336309632
12103466498327661597
11607272740432283706
5209476176351200263
18218741002265207392
1782325780139500846
10927765405338813830
361087416239419054
974906893134123028
12986830180136255660
14070510864740738996
7358210047701389560
3351500696337812426
8479676744672939221
2720401913163380656
9928158284129273584
12101721746536154830
15186676458253663235
5779638160392304056
6092882528416168344
9605407219628714438
8145738834460365524
10116447859146749236
8208473063201330644
5716554489904190588
4272071728568262372
5341025497128908674
11233922592472039280
5379937405394067270
13143491304786593122
16931387618681993419
12038986552308119857
12413420179959497923
15454490027249718308
11273786125683585510
12181873112737123465
6084981944662831913
7601047709863413840
10587590545093399109
7947199670169025561
8443006574334630672
10268488343379372703
2262067047043741827
10041975571043223901
14705680764143001233
14232560504052053940
2183215448702255829
5427307350268630825
11635338990674651650
14741913509859616197
8385619390840552962
12247243798995912403
7667484429783428076
424991364477987993
16564337836764309488
14026276623734464120
1137887624453631068
15313425196864531326
18347581085075722392
7525775780348062795
15052966113160358182
13900154154623157606
17605809655180408143
13149897635321722272
757634614769959882
8295686763572046031
13894304041081831350
1090938859200071057
16085301697601073337
14263631872813212984
8197462289325330855
10158660814812471953
15914131047064176924
15658943480508901911
17452671384450739049
2545808435916741029
2342066637737113044
4138928961060445506
17565911195154919787
14217432852576018273
16634179514852565673
17020248756508747314
8197024029734432551
12414143797439146348
13579035145905018750
18007123668470339577
13465923781101035402
2225649210272860452
11440896425839837213
14889550326935274438
3186685460628279620
8256319092096662756
10005428174537398744
6868839940994910672
7559691257899729416
9996867611770556468
15059227037701301992
11173072678993784461
16287245909789218141
15265918321208967488
8235703087865086028
11299157012512127877
17164050078254623173
15276423398379938976
4037045404343628276
10660623344314879507
2171999186723871788
17472038058512950245
6810646199033080957
3758262144178615073
1134871289472042520
2630009388896416386
11771081396616636595
3640161335904813561
7824366609961266754
5464811444584348253
16275080015153105260
10472042875431228848
1413160345722478851
15472702342706228385
11046975760238858586
14913594349101155102
14870267373319307721
13543078753502632070
14632535026322268560
10181156317062347938
9790399958184431362
16604041613768188332
6751953774365119685
11621765972541860123
7701727004994802235
6212060005479514979
18217695187761730899
1199124690669838208
9280511382882318279
12366693170993544596
14924568327106575065
10659401816829883265
3113927446301931449
17517284025788015424
16081792894070120578
13332239590105594789
17088264033578064590
11762177282656502316
12647988406979729732
8716511474978120738
7977996214732278481
8507632081973314720
4089402250431238357
8660535633167492648
6006578241127013800
14798468688135493356
9026637558122746125
9449329443459820668
10799281563667645350
4968155912736253122
8456876082080685951
17168553334998021856
6677231019485213011
3688529916839577860
12373530894378429713
2098743423076159630
9655288698208438330
2420617721358418966
8157164447870696864
867287352217971614
9664237850812533499
6937447004672464223
9052641961075160127
8933533227889414066
15886531308059262319
12626102581337862889
18110626659599854788
2271986138027025057
1480648796458352930
13660988304636261352
17071490272368357606
8639906582394008855
16677477474333525005
392601833092040805
14245219936105048972
15215496979852156397
18372251968978080700
17996498847159777743
985472236449611296
10785495568966023149
7172992071748914221
15850724637688047041
11924035439249446740
4022223334624989381
15553830427239024771
16306456139771771503
7104385406964277120
14575769934158362212
7056162958750928389
3808393614460652353
7228746241869016509
9915064906008029504
14907274930095073519
10618103092256591751
5504933888540542617
9279532964506376846
6400679343523493128
9783853570491004725
5110412431679412707
17871343050721819372
6523320371424151595
10641566535209498000
3550900078789515991
11108802307476409709
14196046051064829179
14168553178199515670
8562116073935185811
9128991964572819538
5042977040568108209
1749492030972034648
11476157062076910561
9395767695320609069
2178870324722965970
5085947762135856278
2439781029850578243
12846496026775724635
5020585430133558549
9011123172798030707
1752402067291466668
216042193515519918
7161151628274440992
4924459824260602276
1046819248510492503
11360428873113756376
6049347382721906955
18108121838276273908
2541222198954978529
18056664480952201451
7134156178199738379
11551848532194013342
4471586630835092165
827150896394259578
1571117426327139688
3298589078431152629
10767094245083434230
9784991019106453690
4828809094187629300
6749656973845399275
5687184172419057223
6604130681109946060
6708112228612242923
14214732020407753333
8682986902118085359
3914003611471313334
7313103241611206809
3410998285187401394
10486050735847711413
15945611270520170771
4823689057890513889
8039903153308991900
11577529010967328814
160860527879423488
5021955233309581045
10569284994566222981
17424870011393990335
2503551091049573303
11967807611832304451
6027690108264265124
1501084997128632507
7726734418268035697
17747927400150641380
17041476156662742229
39879538915565878
16782962332193547551
16877350721572046109
12078029298701317549
2617033064397227885
12705779448044707036
15565513736529778513
5314434101319302710
8253797507650171088
15794226644793727297
1923954818927693279
4283313141553974156
9870501122657896772
16380750584449004579
6273783039422438060
3081450984301372668
566516653719530106
4004498995343238828
7508547331120208760
5508783747167540252
2325421417002812395
17148951584725318338
17023758578558222883
9289796446158789770
2608224834623069668
11178553535704435613
16114295285035068479
8669804348875742016
8168210563142384409
12447953397637269696
6484511917583163758
10199283867289489381
11349273646828822102
17772726181328906182
3662548581661924057
7815528539868959962
6893676583520546980
3702167862840229554
5106367638505625840
17251210349416907229
13549000384646529367
4560819718353594514
4068328991107043748
14799819020484947585
17940051752605964943
16073925508185921692
801359994945655859
11820810594526057708
6172794821681898664
18311146481136849084
16215785875531540982
3275480540900163050
8065551339460270324
1468128242729191957
13778735180137786374
8508897895110553160
17253653884567125441
6143558547549365701
15221240167899098001
383798070723855698
3983537371195584117
13701064547634572364
9137741513560047919
1381510932155129684
2807656292017072976
11146161010276035763
2617179954752347812
11052132356623996976
4602553392991933280
6499485530633393398
5065868789575707569
16088003585080212889
358538018066086808
5961800154994829702
13898902204509467316
3105731254197421662
16620532958134498641
233682718790427500
16540471304038166717
14203537658540649168
9845091381278540065
12768003831178992800
17094893129620250903
12633916142653209367
4326111419862469131
6485720721947262867
16776960757666923818
1720204097765281602
1079592410651663599
14477809011098900906
3268223981969164151
3913879634791622813
1107714526908008268
6750720366580863274
12737370450859507905
14718387721469999979
9719321507900510943
7224784480420210463
11270337948606315662
18171733683428864551
11625564507127614377
6538700402883597867
4061179217844593212
8145628940671602341
7092268610584913986
4232506260262585727
12427630740785484547
3818549920959100796
2351292383773843407
17325877447949457497
17887507064427039887
410575746216854130
8824092547903412709
3853935678959463416
7039861452989087978
6015397089518595830
16877142944877604113
8344017396815296220
7384219110016595511
12643280428431606829
11154608331226104137
12172688028476164664
6130654816497170334
14762426027944273768
15410426620319121325
11024728304760593804
13438031326949475180
2890129396001380993
5065675714450983526
9092685120384474424
11546982812638848136
12575298405926952248
13410048891908046154
1725405795899204185
1358613028643725061
10513948640722688381
17514315154226917976
16472588866851218131
8597127137386878767
13066503197235865588
6575652279908960009
11590033458749462924
14271315735609207360
18299985914604814868
14875041878345019928
15396978871802500533
5250545378491156046
14817251755012701782
2786169047369031028
16444488132694376878
11794397613972560242
585206347909646209
9721261642626546303
12678817949377504588
5710716896481570686
6567279227012418188
7782449605828636622
16814677072940592873
3355570636311571266
14233065469621307251
14339738320911638634
11176250597656452393
10007658493011620860
1326135630637074837
9000232867414727522
1198248514627608316
13659055687250637725
8916916751803472655
12361101905902208931
11045023663674318671
6045820410504361416
9427328647117755762
1960111015261651612
13936449807997673056
3676409565038147174
8686549769011599189
3315932152826992231
16258581222830788998
10028199944762293654
17481054653326845414
10289270425021730200
7357945278741126965
7545877588553878821
7486173469835216452
12069335924976783474
18219210955233984228
5455693067076313689
4646450808507518015
3118545910927092511
15172369382563907858
7647775922311616796
14756469283244924399
13049573496645037606
4307863767715499191
13101510968750912711
18234921087231350655
10165995125719237229
6357806695145280727
15795877163827557162
1214366270232933337
9262983438782692329
3301682378362123325
9157009578601656931
10108700973201829974
12636480000412557395
1216188095221302591
4457587451310796927
5212274396488264352
7464702247642075765
9129853321244252027
4980726126356377120
11224725746895330095
9891992129638533896
9155585632126977580
16639852698472239114
7956296444349088131
7842536980541684240
12563642573427165969
18028658029184791779
11174039492119290671
2799626891250166154
16426714093241103806
8847319174591948191
11672715210856839619
6194984391327740746
8572471099947621233
2502526942006785954
11630357734270867926
15262873766672119163
16174974968273332406
10881867712731107840
2454882698713650422
9195174928195134520
3542294970065597102
7755949078664225571
7044880889911186269
11736201864321683948
1188582533361912911
4887016962363927763
11588235699633409929
14042147472841228024
13702372461681839034
9245246815450617115
9253245237900179742
8767952467983382720
9326696569290332285
17370090723156509999
672850757357725437
13116948233820994314
13539959016443515459
17819819749139746189
15808469340901974171
9284672653884045502
10605686502837318853
7478462477368007729
6931004023837530454
5314757911323650649
16313992987705501497
3695813976870042187
2025307954134325129
15312252063513392927
10994354002003702864
12296203886324703417
4132880211569236895
12123455480966719914
771477347859187659
613795471955422410
11895493496812146825
9735096633213611618
4036912608196328297
10259985366588276977
1545117848914385896
14095234820141559695
1720126828519621014
10016579038488235713
4831421307460492612
4754772481393554235
10294599294353325657
16767687483057409289
7606455382145166059
4383474941522570284
14267739735611989132
4515506521251355709
7151239602789825051
6791835469898169607
11847045826487369316
14925213416528097971
9793868749089251076
6721036111701961675
5747406248581245645
11725066381712986976
282919471655079002
17053502956811344462
4096867553639202531
6901037156701120841
1403801141646224256
2713648088404871180
10071473678456820703
16051080989552735383
12513355194470785477
10341943806786789358
16976627779764406364
8048943973502214286
2433953158602904161
12546567977182829440
16046868938842928594
6972264696214242404
2140870080424210091
9663408036694870262
2052239500958761488
12780659642575572079
2336132292301798968
1162125429615175793
15316894866231657507
9217409693651637893
1099739248262846221
13578479407695623135
10845810326000137531
528275966939599131
14072091095783212356
15269411569575631633
10657486726416198338
16685961913886394464
17871449585122817423
17867177111139299847
4945530713516187376
16821770101748535144
11509471484416045541
16866143709251465881
8652756911145779756
1946774374697671151
974410900333166695
15504609784141748288
10482167615071631410
17431190488892702783
12481178807638953407
16382616765109614902
4092046822048138095
13376970835458457517
2024642013455545636
15431225174912969809
16629937839390079590
2341783386889301541
1771486524751241955
2537257238521014650
4088604412454832360
14897860832151275630
2603071212337144084
9865275229864079216
2920072564198079401
1595463830625671304
14841700198592487304
16423112099940858723
1384501109447103913
9399060554824403674
11593734828322075123
5833102323909290678
11857336139480942816
17610018191233464015
9580108493763928335
12783940557236866273
11753905236282774136
3102076347350589554
9738864323934512388
9648844193479553225
16408469222522552907
162089520297772105
13767696966554093632
18340487790971624767
17756730147556136292
11418016474676921739
573923123884941961
7342283225281825750
16333699106538822893
3344116032229559801
308889707100690200
12367180405669467896
12800895851783776113
2562964506172362135
2721384432981250663
11819927893175903831
406786346630746706
3259505121505731947
18434165184822385915
11192944434363942198
366229933280796447
14852102069807471607
17074348987220441703
1359975420109828519
15696136323888720850
14036086706603747026
6764144517089799374
3770007869060978505
5579002738280027764
10990016950905889596
5392662317101772013
14824039184537499754
14834346352807095973
4188955653391574518
4241584389751129247
16520450653584024523
11256226247750937949
4538098954888449154
883952652703516108
7226755979500233732
16510395062747274781
795855597540777679
15617577322329066687
6314113749159485670
10919442041599847090
12936478194611041552
2012737171843053946
8231089918646301615
6150271414340070472
11716890620396215983
9176354376826728988
27915919209799241
17120063954582083622
1558873017162008857
7360733886798761643
7672382812387438091
13147288242321086562
8825619960874128725
7326762861040583001
13498458571815757982
6729554850601878304
14588566958391762749
2794850114194089723
2640026295214132033
813930652136370054
17757645750051005526
12734898758460883150
8402123928914079667
4027249082046567052
17189439325237837182
15021646178650617177
8514826058811062542
12273043173023426465
18281465673213534915
5108070235831042111
3578093715999682977
7534736631950663656
1009783654319500775
17319171964497147441
6486323317389178964
16513801331985250442
3937906202927669862
17873975723971245822
9274634159629297420
10115476763892133233
7180376537952578415
8701829936780899534
4297745643898952041
13191488496139912311
10652646023217180739
12564523312725065233
2835533204849869221
2926557643716576538
13200600289766934963
10481541308023796440
16236555955055010750
6426969347737248802
6566463334202952037
9611059610891538940
16919685420746843737
13626094030744378396
4194794101707806566
12379965155724756365
10622056331791417764
7854543932587424639
16397362138227757029
12094490289915131013
5361756438549740549
3842453297475096672
7681793864044272469
2805615499224055649
6758582725179690190
2468086573523093453
9603508633256788421
8155772254862000064
12123018770990496342
1463831725266746638
5253982838366094981
8998100572851289521
12443413340569076030
17376658113214507955
9325170099384386817
1180493215475079798
14443357578948386131
5321528551721642048
8217089395078652847
1000984268944022573
1432547961081451468
16129028344533353536
2387737837268427563
6468304273831766459
11654799584784981866
12604960099487070872
15354760997296876056
10501464811181659612
6132533297323598864
7046438277626603687
12191817128222502660
705529668900184863
15417100233058309579
16733175349108805956
1503847780100844102
11647912523229657405
15258169142526738556
8720298057164125076
13118545737979159134
18416674558595611265
7332509547680187616
7533856483840098943
3979698327356825155
7998923516394952295
2713084566244710791
4959801402735415206
11969774356232006444
7636505061368546127
1935703000491355353
7623187267826629891
13468232454957297047
9733655268453751384
15464980356006931877
14046572511274047474
9351953485954772738
1631289333012298561
12559030863603994524
17004252815138398098
2165314320310751362
10699887361291377689
4036286875660434268
1744385873527917452
10380568249734629489
12222073484893594837
15689538080433150185
3236534694491562406
18340280900349614428
2067078636898066272
3796165769513349241
5927734528485342238
11378795524518440164
11820970159801434872
12921162346721964799
8062768596688218751
16574658479136668871
3541229851016310790
180087185624804092
27902030368983559
1755298770212234719
2437653574993593364
14624373510123102267
7665945165703570740
16293834439927880420
6096688046546732290
14347617486922689792
16588723345367169782
13885353637803955693
17390489154854003584
3722689119875132520
8846742819602136947
18075662410278675192
5833963423714267895
11133090413993760299
13476120229886288331
2702596903582932733
5994717031728600713
7950797406900226109
15973504345369840955
12842056147596178214
13451919641379890127
16552638679072578203
14774356784056136433
12724982431729481390
17421626165444721676
14741275435229601272
433968638310995372
3674717746310781913
3043120129271975062
153432602003751890
9110351880014870909
4977751738557215926
4738043714465641785
1961196716771382063
11033024364711495653
15614922757161699427
15453776987030882287
6755621070436062701
6297373628146624031
5334464076356646039
3471689134263400492
15814471316841928353
10903825957880906087
7958609606660212705
17409878693411910587
477463013008389943
12451794038043027840
4414886039079530191
11656288292854377504
10954137811739093936
12888848309884363460
1318055606536181405
5589229758822475402
11034780943030979608
5071521615768242868
13949154089373168832
14177927052689989418
7432336567393311252
1285765462316351213
11998765784558424685
15877232351219895859
3326450665704680870
15597111637467372779
10582662783833472155
8930907144206340251
12978892576773045991
8114430762300906802
1935025660697747203
17694540121117596992
3359637561186944581
1634466222453636409
15063825303620338329
6339287639401501729
14188901020886862305
17011049854816168337
11536121455294001740
2019253333032968809
13431168853166791189
1485841690670887966
3329558261740928870
10968340000812928426
10443759585873943573
878229360807725002
14868063929912634902
8758480381068071401
1723462908615933468
9630518465663677416
3385284484774334523
6008385830586984777
14363759869743004407
11988079602628430858
16500527358030180189
16150307154224476926
13819032376546420044
15584539365624137948
5331219633337402474
5761759985503854662
4265787786608463304
9321974697483342738
4898590627725061477
1563366677381031507
5689287652638811022
16946451362295917843
2316546792070072680
2657839195754404972
11853863977944023819
1853499223361878680
11087635947755480926
13192607573953486934
8588575609863770545
2425882819177536034
11614766490781542321
1653508946882117056
10355517473778491583
13987615098005137094
14404638785387952727
12296002402046821648
1674443089416259825
14612057448610732624
13462690562537691935
17311424964481454073
14669695245066956331
643731090269882739
5423213868670702383
1323044982299375870
16627304269012416819
11668100895339602382
18261593029892903256
6730543750449189064
2134641650407923874
12764198863164871975
13929921979724661405
3474958517312959450
10968016160836878694
161885061106898074
5212090519380028455
9380439760591073883
12515237721476780528
5091488775894910275
11469375467799408188
4488883474870995444
12189041104679206103
8480280532363134337
7672259999720934786
4316726470026054103
11024014008542691750
2762995227630493607
14991995763042100063
16554770923171851861
7796152347953936457
12688660210710420487
8880885723173784975
14477421754857455542
18120518479188704170
8323676555064329404
5542306218185964143
3229855297442440707
13477695441185912945
10671629955663114096
2182906200170510945
1159988431196425878
11542764953002338719
7348626895590359898
16773682936685765371
16707010801952447136
10180549325252502058
18271582788872881983
1738939534503628150
7256784288252791530
6292563104653067386
12536210069959987138
8132237311912287312
5716383809933571857
7608729317749991300
4844486777479989711
16512171156913150473
15228134618982831109
16464413658746388691
13116418542743076844
4571230095073886795
15206048590150508220
2943169186930896672
17286796630428586314
12685944476418394818
10034913964653396366
12609081364036566802
13613399827475146208
8756747102042438561
9123419342039507962
7798848340799916061
18411783176280705765
3459310895691563276
492713649010226536
13120089191959817167
8682956380072173202
5648672047170379332
3967287405749313242
13257890005969162185
236655350684767489
3056568173705199152
12989042658092324433
7210767522622536065
305611980794446177
6532188590617553201
6807785069496824443
16803636920238310752
8437090179916746783
542666500794209967
3230432129669880065
18122637717643641862
15699899955120966772
8285858303932147064
6969883584111319517
9234602876841776064
13247159982177443795
10216533629688533502
16142752249091017870
680718798545821324
13962590020290695203
14845106868751734431
9919785714943862102
16546271922572176256
15840278647663222417
12829431202332768685
991264145962348994
1684365552420425085
4065977507455225633
6688611576564587740
395930112683022025
8707703391305433610
492079328419401564
14168445353574066111
3960176464530192269
17661751940429289430
2293952052844281255
15378366966802401223
6100717669533211872
3478021277169310171
3216830978881897518
2657333563106167199
9394908827470917462
12374494977090103420
7062188177952683887
4754573349339983204
13686095145416216893
10200593910448957726
3225355643491585428
349796180921561088
10194439985556002014
2866663814224671071
7774322596687374666
17801044540034706074
868663062110981557
16234799495852643844
10461244328370104007
8995407869299693849
5954594733385230617
12746440868852636900
7717877043870093456
9191939287862768212
442507054361140205
2983693107462646333
2028588662833163914
7704895068596844031
13100478123314626143
3616028792829912602
2344475343922965542
9867696898808107192
9949760487971877814
1207557147306224535
13481670270040139275
13252997894138647031
10472891006931263417
14998395333793446606
1352451072391708812
6715438242662854163
15119052742171626668
5803892203532593907
3427722195198477626
17544789014068730892
16202802805991991964
11933633688375262578
6747402130572400204
10433372870370702698
7692770865757245716
14505623180030220507
15087472661433206144
7211632496549795964
6334190774008789836
14201841688680968357
16352327747568863399
1707684433486145387
18177160123148562150
7221126472814113773
12805937773019464985
8158818169754834189
5912317138655383464
2340109531189596821
11363499616250438370
16860356895463979206
15453686408647220745
1829143692166771424
2367976190796563658
11303402405333383548
13274046466834323960
4555863871712252280
7999104726580209521
14489937822396143710
16705806286961824909
1316425801444449400
6519836407360895884
10190723490339170014
5456004504462556634
7971471241982534701
7219901297361161911
8523188859315442454
15111902040802865386
13680747065766210517
6406377692808642365
8542966362258894062
1528399798902260064
1640373220067694093
18398056334299494872
13739693473384757286
6700743006325607683
18084236289820421606
9026146098238204648
11203109812063121821
15747166680014613964
13884226574826130228
156244831619969500
15395999292552836258
16947263516437029587
5330514888296767699
6512367335850822303
13817829886328783546
15069504918907920240
12792491989679760500
1219440731111685247
6013366266032098046
1564662002021273626
8954261054690276048
4283483841068064974
9167075098223123545
10416273806401549342
12756323335312669946
2008290871951634229
8130674131726848096
848613675998431666
6187291320908651595
3770426106060317373
10198909736044068631
1281691320592349091
7106065523099582251
48309566259105742
11713252599733815793
13066474481291634319
3214435897117521122
8791395004898550424
14464436738367584933
15371379642671497854
7206563683361045236
679388510740290203
5302162750911414194
7228853039276427723
9898050390261395464
12114854427703843018
3240783658898292636
6657979658478148952
8254307139995923295
12463943147989567393
4179218505077486536
3648427855924513458
9124308984023682296
16088002909713967329
4451828298476874111
10681479949889703227
5659107281976005885
11215090724166038825
18231222855352872893
15360521200207541471
11672943326594453596
2431929114808405313
13282057253743429892
18214606257174189279
17772397863495798281
10445955028275586807
14161011180969931539
8570576463925572452
6153776434557272205
11411607617057463991
4161557807253193911
616872587805953551
4282142728742885867
15588469232302843255
16352749197434058683
2197975825166781587
6079718533315227023
274915005976991157
15987664133707852516
9330230738582636187
9297167415756509678
8913180492057172936
12671315825299998897
6065262268867750619
2118771865000340295
15927632528787703870
6600241646370618765
7312713832025243028
10524375756175693758
11698710478306619137
1399203367038555622
11353857943417316367
16934334336734898159
4655041801794791745
11589221877321868099
366402800257678900
8518697262342729649
6442454647687563253
7031851271928901243
4656269842890321428
9891725183419048754
7187645417720321247
11555777593943841504
10475219517903917612
263305122255095057
2286508517332160049
9559595948569114406
190746010747902739
1091301197726647468
14029784551302607407
8817695400825439403
8084898003653752909
4916238038591062177
15046396985172373282
9292227263390609848
17064108734316088658
775491211350509484
12289634497828221312
2204641774161408229
6588748503519933332
9055638967782905448
556691817004693591
8287618786510398201
3495790144741627278
3339075833366591192
4212394783026563432
16376862195374863413
4339287806681858296
10848392550866991941
3509480801001616790
12462023373290446863
2812045199110347593
13999635047508644014
4842119211376784572
2583101610929026719
911256803907940567
14340304598024912052
6641714529455871808
2327320939878019172
3444209995426723695
17358161997309526875
2206709529014842039
8200566727221039300
15844375931870215048
7594249028168756706
11135194335937909926
13558297945480463762
7342006251940241035
11405784818750271110
2857063682372748563
12532994834965865805
4933772599070726051
3728144495773391324
4558147363683309930
13753585712430974614
7873818398886599131
9531589832560683552
14938572229095093168
2669053576386070845
17933487767891039439
16518369771762609860
15791514450035755041
12738833552771755773
14577856246226149178
17731856195383761827
4779238585341966392
16431040556393784532
13652078953594037610
14869021081846047252
18072665421895967125
9879041109258923792
9722729345508138094
2335520759642118672
9737348523492928747
16551592471503185778
18037870094158872605
11701841203253869215
6796083908925821154
8151605676565050023
12963469896803156007
11496372309888148987
7403545414997195253
3002649044466928785
16339327165456854034
11610687864572287744
11205314012870042703
8661821057908408408
7331517123051829557
101358111206992921
839207986096184092
2341628086129650349
5072628467103701728
13416536488214303367
15394205148638925287
1607223288408465298
729807386887794323
11784974205812049452
1309097757528044787
10900059214470975335
14965606507643515566
18325427827329141409
1062404962345683329
10331605007940381027
1233506781576108299
10816514726675057317
6794228870520391953
3113817307639043109
18158238762187554442
13473451897841725098
7612319723023093648
2881828495505196968
12085562797399374943
17856530049888540078
15335232642823167824
13937008203716079378
8084391156577432469
8404456778320513722
12420316050637630269
16594033429772186338
4133911336901467136
1274201431860681290
2733842560936330719
14615348382790534689
19901142229587378
12713128573831075135
10793810811370858777
14320425762028483162
13272469477436635307
13434926059270469895
4620916253722127718
8380245512555905618
10761891855081231635
11984618933998587510
9913478789830665305
3647531688766549814
334583946815214185
829187884625143566
2132987300339008631
10133271951657109283
13300338270385371686
11439171361724977320
16003805112583446150
16959376176999230225
3459681209507455552
13580148778952468840
14662041119628542716
8029124308565055458
1124377083897570129
7019387995173577260
8225060996100813714
72557447850995491
3089133869228331328
13872839154681868117
4113892198059044822
12607421941067553731
311351812290790997
6507493661114317191
14542926646809476556
7115544440835255128
16638625135823244878
1716270340186979869
15614394323518331403
3691650340204234334
2396894241449493284
4467741466470450137
15197650624654320378
917610792941885073
13520504435849807479
4658223022492726921
12932902434239435486
10736758961061658606
14681145614493857176
11865189875061374232
8089377077926922857
2122281209764370895
4724269838049656396
16128810527313627749
6126696108864505277
11441346252540390058
3503036887453471835
9871859839499382673
7254616151999388339
12030200215583866094
6394764502251786147
5883710056157793077
2789033381149573705
12511387920416600126
9857397297451812911
9969457391899130651
17111186476435061653
1788796563871362265
9890125576395727894
8091566267100289834
18191108891888995928
4271200939301004055
1878651694476394371
16234766823345591209
1681945192680858489
1598042552889907929
16141338784992511335
5395287734857238232
9857622142580415029
5261635215294390897
1873490076358024873
11622690612920375219
16287720353628113968
7223692865537084457
3982512510582006337
15898943979172877175
2499034731994878498
17539880316063845917
10838809341082035937
2383482604843865561
16089451166966091253
8244161927796163975
649623451981201482
11295753638851839510
4165661618801093945
526161872272803269
15157544868202155553
3808967635624097437
16067001470753914548
6760492745042594739
9723934416705281951
1668674781284611200
3926275564383056163
10469058189572669690
11291703486810399527
3078548987811320420
14350111021090244505
7198663651051613171
2716057505998224346
8904968086637256099
11666627590981210370
7382406117925558333
1667533845470692747
11617386435562758059
6793104653619809611
873870402466069364
15347955242467540396
12197160069180634546
2894799101198045426
8442635266495157345
7829897349909743040
5793355585470824156
3933927907549153863
3873968718942410960
16838173569840719292
14679674562511465936
16388023975343682768
10742115537412991874
17268625023777980916
17061242473120498050
9302384143799162371
4274049515577047895
14393302316506243729
10926726295580633898
3615433706271826940
10312363314183068724
4481041345274995427
3014271199950720407
12795449285513593429
9967696274895712032
3264871803369158743
14607308877946346943
18127311362493734338
1351527097275914626
2067115650712111339
10586570648931506331
17368483002490983862
15235721441519868764
6826441822287952127
15500021531671405343
12869934964890221962
2732439968641685392
10041263702795653209
8726467852132612511
5770880756514113392
14480958241930388194
7195080795421156418
11546024230999250233
12532181954910072752
1461685843869590550
1233698654976270846
7239642965892935555
18017594709938197996
15238997346985948250
4044974494702145314
11966530393913075203
10855791556532996540
7399591018264822706
17813596850058493335
12415570669117445663
16578051995010978857
3212894742614026100
15200819448283780430
2180040797109982470
11063493867769748692
11663850134619567747
4483430979246494244
4340043786288285901
8979897263021336368
17760058397037169624
8968825310665579986
17027506445033378949
11121235871692838285
4077885783181964162
17652024376131037690
1342604167615260110
12634548328709714813
7605927993335746316
6250289875583926397
1924059920991967834
8023704431331179687
392779886867464060
15232358882136397372
16249228202469006397
7880020046363598212
11031667578676778423
1986242587691861765
16925027333314502025
3657288866937811675
12869504899276248933
526796378789033295
6636875455188319992
8244337399894130318
17170859131633210834
751618182217607622
4376159389647307305
18029042890184725012
15458161401450339320
9216860382456037627
15860660601592297746
5191291723023689132
10639068788624527626
17677632992325125219
7175079758992775252
17705319907229402477
12494672444944620013
783961110303980935
9130582786977432300
9719462934737945534
17033750896094718586
6743058928540847985
18277074975063285849
10334778201545169835
2835606231806216195
16033755228336373031
14886626799929512426
18091809568707907407
9315398324998546696
2720313068907331412
14743640008153517024
1205308637760124107
15321206056983380606
15431660175194861882
14984757973970078821
16508100575906266415
16916575822843719024
12854670807670244315
6780191378851104589
9232318488308935003
16002020375961200396
16493554739377732455
18174688674275965884
9204637058818230135
12269407433505275812
9169336213883514905
15525464439278238114
9872538179994429817
12847568039354353852
16507871306720690744
12881684509060015674
14524129355875151619
2864525479557272882
17333328762730008199
9048948036921496034
18365782959622203151
3047924554494972324
2894710839596887222
15898217279896930620
1720243764975921430
13283140738783627876
8364697391389515248
5280967060914810922
14397885195401008853
15709154613069568977
12005505910784303506
8434984932015444822
3707220667884897116
8178822867776399362
6925019156424888872
14011343037638216357
8176224559905578763
4625769517053666677
16038139380932771318
6993842573917130821
17379325470005384416
9554629410160873087
14843810415304698252
9701405057120599377
15810286722518633284
8125111180841955022
11200562243602724181
11888150529074260541
3200257479162253411
9506129904676071895
9378631416054975571
5596964272523270994
1076613197938677170
2742674050306011356
7762966545139188964
14952025982593273161
1681508033622558253
3296409314939769836
3404240561873391808
13352034694799319045
16961286070757946248
18170544582290420205
5122673280164234748
16699396809890668584
12430118997453778466
14403541854481052998
7179214040209810131
17593453737680899228
4030994578984515880
14781217024804778597
5315825482181495168
10608845691267516124
3046196314233480923
1074632638169823598
6947179924232963267
16596758311059037267
3584453401876500233
12056718047853116114
8190921798481469191
13191775375783805234
16797592755262752547
2791964078693709055
5707343547161758778
13658747729779793811
13667202060483280440
4502592653604967658
16141420232758350968
8824032368058408415
15148071104584191135
13105735291520477856
4546092613991559591
14274233052434197889
8376491552189156096
1259517125626791528
16864911121182461564
9639313328279526961
1232559978945981652
15624485053512682078
1931374610574395630
3450055604054115828
10712422962751422558
14153872363873941924
399798493653326399
2074476953981717298
1684968595844573637
16074366481325742938
10941319519233837688
5672883652442578852
5881459491687981435
1056716094302170875
7390998025572888345
11763910263173313053
4187425549268289496
8369223185332658970
4234490961083622500
17589690297619096559
5043961452547969196
16816062233030996367
773239860546734555
8333128718996307057
7499833665609256748
2279492815573757958
18359292513034321779
1714660992923881567
4649276503478945911
13180277569291904363
5363458779912985932
8698542512090374358
5364776671347022864
3231913046344587228
4016408958226609702
3166616599402326284
6517397013921317677
11612965963446346258
16826985701696207804
17032919782904898900
1866762277295723177
8133481243903142647
10128937085830584742
1209084127832173555
9819659755944457418
2099011018141595770
13086683821078509742
7007369012512009234
16330729205286348722
1783887241244056232
6385360211099016765
3275459858071936115
11248383619663700698
11503322888342712330
1668208251333764632
11107859150497563881
10551498991875809863
11556660468983331535
2516794598974246430
5717475194517271240
5566472950086605356
14070964338413992414
2606084303080627090
342600645829936081
12004380698232848202
13480192862932360518
16585024472204746389
9285912719909304766
2268004517454022701
14559303207958823882
13562504310009649843
15165773663381007895
3257524500747925228
4165858082446662279
4626529474896507681
6358977146884672161
599234768851155620
13508569623028521887
15701143552444589378
2057390885799975664
9226996448956675781
5227438694144274296
11059011747245347630
7781667078439836746
2439174269337318895
9208744870932706261
5439521700214030576
30730496184952215
7493997505365966991
10317697486858808754
5426654857069752680
7250243097973594269
2435358737363852489
3224539761182812483
6502011243987012322
990726105044783106
15402024354613144165
7532376833398858602
2603394933389759655
5634986243702111626
8155015327604180067
11515469577333244815
11746669543769867584
8869314161106902905
2899656812155417626
